<?xml version="1.0" encoding="UTF-8" standalone="no"?>
<!-- Created with Inkscape (http://www.inkscape.org/) -->

<svg
   version="1.1"
   id="svg2"
   width="200"
   height="143.791"
   viewBox="0 0 200 143.791"
   sodipodi:docname="milis-icon.svg"
   inkscape:version="1.3 (0e150ed6c4, 2023-07-21)"
   xml:space="preserve"
   xmlns:inkscape="http://www.inkscape.org/namespaces/inkscape"
   xmlns:sodipodi="http://sodipodi.sourceforge.net/DTD/sodipodi-0.dtd"
   xmlns="http://www.w3.org/2000/svg"
   xmlns:svg="http://www.w3.org/2000/svg"
   xmlns:rdf="http://www.w3.org/1999/02/22-rdf-syntax-ns#"
   xmlns:cc="http://creativecommons.org/ns#"
   xmlns:dc="http://purl.org/dc/elements/1.1/"><metadata
     id="metadata8"><rdf:RDF><cc:Work
         rdf:about=""><dc:format>image/svg+xml</dc:format><dc:type
           rdf:resource="http://purl.org/dc/dcmitype/StillImage" /></cc:Work></rdf:RDF></metadata><defs
     id="defs6" /><sodipodi:namedview
     pagecolor="#ffffff"
     bordercolor="#666666"
     borderopacity="1"
     objecttolerance="10"
     gridtolerance="10"
     guidetolerance="10"
     inkscape:pageopacity="0"
     inkscape:pageshadow="2"
     inkscape:window-width="1920"
     inkscape:window-height="1017"
     id="namedview4"
     showgrid="false"
     inkscape:zoom="0.83278173"
     inkscape:cx="-6.0039742"
     inkscape:cy="357.83686"
     inkscape:window-x="0"
     inkscape:window-y="0"
     inkscape:window-maximized="1"
     inkscape:current-layer="svg2"
     inkscape:pagecheckerboard="0"
     height="143.791px"
     inkscape:showpageshadow="2"
     inkscape:deskcolor="#d1d1d1" /><path
     style="fill:#5294e2;fill-opacity:1;stroke-width:0.286785"
     d="m 125.40909,143.49601 c -0.11976,-0.19376 -0.22478,-1.58108 -0.23338,-3.08293 -0.0138,-2.40599 -0.10923,-2.9085 -0.80293,-4.22672 -0.43302,-0.82284 -0.7873,-1.62775 -0.7873,-1.78867 0,-0.16093 0.54848,-0.0397 1.21883,0.26936 2.86587,1.32134 6.7896,2.85159 8.35859,3.25983 2.50709,0.65231 5.31045,3.10476 3.00339,2.62744 -0.91196,-0.18868 -1.35858,-0.44686 -4.09854,-2.3693 -0.87921,-0.61689 -1.45222,-0.78936 -2.62265,-0.78936 -2.42592,0 -3.66167,1.56973 -3.66877,4.66026 -0.005,1.90464 -0.0265,1.99142 -0.36724,1.44009 z m -37.098134,-2.12415 c 0,-2.32764 0.512697,-4.01863 2.292459,-7.561 1.356397,-2.69972 4.00684,-5.66484 8.246873,-9.226 1.301292,-1.09294 2.365542,-2.14205 2.365002,-2.33136 -4e-4,-0.25412 -1.295461,-0.34615 -4.947037,-0.35162 -3.42662,-0.005 -5.294598,-0.12811 -6.080631,-0.40025 l -1.134573,-0.39281 3.142071,-1.49248 c 5.871607,-2.78902 12.11904,-8.2028 12.63409,-10.94821 0.42504,-2.2657 -1.04852,-1.83296 -3.96988,1.16584 -2.185162,2.24307 -3.192391,2.74991 -5.471582,2.75322 -1.568318,0.003 -4.781141,1.16266 -7.937145,2.86663 -4.094437,2.21066 -8.060913,4.05327 -9.09169,4.22352 -1.051981,0.17374 -2.862559,-0.75358 -4.181897,-2.14183 l -0.798449,-0.84015 1.161921,-0.80522 c 1.414154,-0.98 3.23418,-2.94838 3.030652,-3.27768 -0.361941,-0.58565 -2.914647,-0.90624 -5.738943,-0.72077 l -2.919547,0.19172 -1.034337,-1.20838 c -0.568889,-0.66462 -1.39867,-1.9092 -1.843942,-2.76574 -0.653905,-1.25784 -0.734349,-1.60447 -0.418329,-1.80242 0.215185,-0.13481 1.79921,-0.40727 3.520036,-0.60548 2.977728,-0.34298 3.120068,-0.38965 2.948588,-0.96656 -0.524797,-1.76568 -1.200438,-2.23557 -4.99579,-3.47449 -4.239761,-1.383983 -5.999515,-2.470588 -7.475588,-4.615986 l -0.895261,-1.301218 2.815695,0.206692 2.815703,0.206685 -0.450193,-0.689273 c -0.441848,-0.676473 -1.69765,-1.677478 -6.553471,-5.22377 -2.837771,-2.072475 -4.148169,-3.662984 -4.420373,-5.36525 -0.107124,-0.669917 -0.138644,-1.27415 -0.07008,-1.34275 0.06856,-0.06856 0.728029,0.335797 1.46541,0.898645 0.737364,0.562849 1.501057,1.023365 1.697089,1.023365 0.196029,0 1.05441,0.520773 1.907531,1.157274 1.872834,1.397321 2.674443,1.780998 13.616319,6.517183 10.224884,4.425837 15.182425,6.293979 20.78426,7.832113 9.786103,2.68705 13.059243,2.92496 19.357953,1.40707 3.913,-0.94296 4.17163,-0.96767 10.18086,-0.97286 5.2501,-0.005 6.65571,0.0909 9.4639,0.64217 3.6847,0.7234 6.43821,1.45113 6.24013,1.6492 -0.12764,0.12764 -6.3168,0.8224 -10.47021,1.17531 -1.14355,0.0972 -2.07919,0.2646 -2.07919,0.37207 0,0.55811 2.97185,2.63669 6.3519,4.4427 l 2.31565,1.23726 -2.68476,1.34382 c -1.47662,0.73909 -3.13645,1.61268 -3.68851,1.9413 -1.13255,0.67416 -2.86784,2.22548 -2.86784,2.5638 0,0.12274 0.41942,0.44641 0.93204,0.71927 0.77543,0.41272 1.95358,0.51569 7.01053,0.61268 5.50929,0.10568 6.12438,0.16732 6.56879,0.65841 0.62744,0.6933 1.59162,0.68486 3.63055,-0.0318 0.89755,-0.31547 1.99003,-0.57285 2.42773,-0.57197 1.11446,0.003 2.94671,0.54459 2.94671,0.87223 0,0.15032 -0.10056,0.27331 -0.22345,0.27331 -0.1229,0 -0.72126,0.48352 -1.32968,1.07448 l -1.10624,1.07448 0.18417,4.15934 c 0.10129,2.28764 0.26494,5.1595 0.36366,6.38192 l 0.17947,2.22258 h -1.79695 -1.79696 l 0.14363,2.00749 c 0.0789,1.10412 0.0886,2.0075 0.0214,2.0075 -0.0672,0 -1.43731,-0.94458 -3.04464,-2.09905 -1.60734,-1.15446 -4.29437,-3.02537 -5.9712,-4.15755 l -3.04879,-2.0585 -1.73382,0.18121 -1.73382,0.18122 -2.30549,-4.60421 c -2.15891,-4.31147 -2.90351,-5.49331 -2.89528,-4.59543 0.002,0.20647 0.38906,2.30549 0.86036,4.66448 1.21879,6.1004 1.21991,6.09446 -0.93876,4.99318 -0.65959,-0.3365 -1.55782,-0.71464 -1.99607,-0.84033 -0.79114,-0.22689 -0.79683,-0.21884 -0.79683,1.12779 v 1.35632 l -0.93205,-0.10735 c -1.26826,-0.14608 -5.81691,0.81424 -11.29473,2.38456 -9.099821,2.60861 -14.000571,4.87581 -17.240339,7.97575 l -1.218841,1.16623 z m 57.480804,-1.56818 c -0.021,-3.35832 -0.004,-3.392 1.49459,-2.82255 0.43749,0.16632 2.87913,0.42165 5.42589,0.56739 6.42753,0.36781 6.94059,0.67294 1.8174,1.08088 -2.27139,0.18087 -4.61726,0.46825 -5.21306,0.63863 -1.2637,0.36141 -3.07315,1.84845 -3.0795,2.53081 -0.003,0.25969 -0.0992,0.62014 -0.21509,0.80099 -0.11588,0.18084 -0.21948,-1.07742 -0.23023,-2.79615 z m 13.46347,-11.9108 c 0.52454,-2.99453 0.54158,-3.81671 0.0933,-4.50092 -0.51876,-0.79172 -1.99955,-1.18487 -2.81633,-0.74774 -0.45905,0.24568 -0.52568,0.48367 -0.36911,1.31827 0.18166,0.9683 0.16128,1.00252 -0.41352,0.69489 -1.19211,-0.638 -1.44782,-1.72237 -0.78196,-3.31598 l 0.40932,-0.97966 1.19982,0.4713 c 1.12326,0.44123 1.29115,0.43888 2.63109,-0.037 1.4223,-0.50515 1.43401,-0.50441 1.86974,0.11769 0.65114,0.92962 2.12173,1.42578 4.22591,1.42578 2.15048,0 2.2409,0.14899 1.26884,2.09062 -1.27543,2.54755 -3.25128,3.99256 -5.96274,4.36076 l -1.54845,0.21028 z m 4.01367,-9.03988 c -0.3354,-0.36955 -0.96956,-1.25264 -1.40924,-1.96243 -1.03487,-1.67064 -1.47724,-1.9873 -2.79167,-1.99838 -1.16694,-0.01 -1.50427,0.44389 -1.84495,2.4815 l -0.15271,0.9133 -1.15198,-0.76235 -1.15199,-0.76234 -0.95523,1.10503 -0.95525,1.10506 -1.57631,-1.44066 c -2.4711,-2.25844 -4.869,-2.82382 -8.19273,-1.9317 -2.3873,0.64079 -2.766,0.58097 -2.97619,-0.47003 l -0.18004,-0.9002 -1.50482,0.18267 c -0.82765,0.10047 -2.60178,0.24822 -3.94249,0.32836 l -2.43767,0.14568 2.29428,-1.13331 c 1.26185,-0.62333 3.26217,-1.4827 4.44516,-1.90974 1.18298,-0.42702 2.20154,-0.81805 2.26345,-0.86896 0.33856,-0.27837 -0.88439,-1.05258 -3.35336,-2.12288 -1.52993,-0.66323 -2.97065,-1.38422 -3.20162,-1.6022 -0.3604,-0.34013 -0.19776,-0.39669 1.14714,-0.39891 2.97224,-0.005 12.31516,-2.53114 13.86245,-3.74823 1.33996,-1.05403 1.02693,-1.80107 -1.32586,-3.164079 -2.75147,-1.59397 -9.84651,-6.320575 -11.11291,-7.403248 l -1.00375,-0.858125 1.59635,-0.01168 c 3.35569,-0.02444 7.77532,1.160153 13.24111,3.549188 6.55871,2.866731 10.34375,5.341484 14.25399,9.319634 2.31478,2.355 2.42887,2.4312 2.61347,1.74553 0.17678,-0.65663 0.25956,-0.57572 0.98387,0.96171 0.59742,1.26811 0.86235,2.42543 1.08323,4.73195 0.34014,3.55175 0.069,4.99998 -1.20243,6.42296 -0.73659,0.82439 -0.99705,0.91981 -2.78207,1.01916 -1.77494,0.0988 -2.02962,0.0433 -2.57923,-0.56231 z m -4.4089,-0.95869 c 0,-1.45888 0.46134,-1.68955 1.43392,-0.71696 0.58355,0.58354 0.80064,1.32132 0.29725,1.0102 -0.15198,-0.0939 -0.53914,0.0921 -0.86035,0.41326 -0.32122,0.32122 -0.64856,0.58403 -0.72742,0.58403 -0.0789,0 -0.1434,-0.58074 -0.1434,-1.29053 z m -18.21083,-17.81433 c -0.78866,-0.226931 -2.49095,-0.605567 -3.78287,-0.841432 -1.29191,-0.235856 -2.89256,-0.620644 -3.55698,-0.85506 -0.66443,-0.234421 -2.89826,-0.613425 -4.96407,-0.842237 -4.19428,-0.464549 -10.44014,-0.228785 -14.08028,0.531484 -1.10412,0.2306 -3.00508,0.556653 -4.22436,0.724553 l -2.21687,0.305272 -4.52257,-2.172082 C 94.947128,92.918253 89.225733,90.825167 82.145085,89.190845 76.002758,87.773103 76.296694,87.917 73.818404,85.114372 70.651724,81.53326 61.555418,67.718469 59.429683,63.261848 52.649616,49.047448 43.895502,43.130881 20.199569,36.747721 8.1301864,33.496493 5.0796486,32.576011 2.9924915,31.555594 -0.80342766,29.699757 -1.0030298,29.084517 2.4792364,29.973619 c 3.2453193,0.828604 10.3934746,1.952929 15.4872556,2.435975 3.448515,0.327025 4.6507,0.342729 5.735697,0.07493 0.754996,-0.186347 1.336434,-0.467866 1.292081,-0.625598 -0.04436,-0.157731 -1.786562,-1.000288 -3.871594,-1.872347 -3.720208,-1.555972 -7.833635,-3.809227 -10.672867,-5.846391 -0.7881552,-0.565505 -1.2807266,-1.028191 -1.0946124,-1.028191 0.1861234,0 2.5731954,0.780481 5.3046044,1.734402 6.570589,2.294724 12.963057,4.217254 19.44883,5.849226 6.070107,1.527376 6.880863,1.769629 11.681881,3.490515 3.505632,1.256561 4.457685,1.497967 3.933552,0.997402 -0.149848,-0.143106 -3.176143,-1.591488 -6.725103,-3.21863 C 31.836614,26.847164 18.491039,18.218723 15.669543,14.295374 15.188238,13.626117 14.849527,13.023466 14.91685,12.956149 c 0.0673,-0.06731 1.283461,0.773893 2.702552,1.869355 1.419092,1.095462 3.586513,2.500311 4.816497,3.121887 1.229975,0.621575 2.610916,1.396869 3.068749,1.722877 3.852918,2.743518 18.338062,7.974892 21.293009,7.690063 0.928149,-0.08947 0.905817,-0.118178 -4.085485,-5.252902 -4.781085,-4.918473 -8.603541,-9.506571 -8.603541,-10.326848 0,-0.209008 -0.451686,-1.322524 -1.003747,-2.4744816 -1.072002,-2.2369001 -1.352118,-3.4600451 -0.514402,-2.2461553 2.459519,3.5639379 10.05851,11.5581489 14.199559,14.9380729 6.624136,5.406628 20.012055,13.029922 20.012055,11.395184 0,-0.483926 -1.320406,-2.772507 -5.06287,-8.775216 C 57.830638,18.348844 55.680239,14.14325 54.260577,9.9917398 53.29854,7.1784562 53.20512,6.6277056 53.193048,3.6979242 c -0.01576,-3.82600829 0.456909,-4.8984935 0.968337,-2.1971304 1.092606,5.7711141 2.642827,9.4894432 6.260055,15.0151582 7.198261,10.996137 21.413689,24.07495 34.083563,31.358358 2.292667,1.317962 4.416977,1.801006 4.416977,1.004365 0,-0.1819 -0.208172,-2.146914 -0.462624,-4.366705 -0.487033,-4.248744 -0.454825,-10.531104 0.05861,-11.436408 0.216128,-0.381086 0.30262,-0.05082 0.35448,1.353591 0.188112,5.095013 3.528484,12.754117 7.459584,17.103997 1.12348,1.243174 2.09494,1.965323 3.64999,2.713268 2.30513,1.108725 2.2161,0.972521 2.98742,4.570265 1.03238,4.815465 2.55875,9.576703 4.36706,13.622271 3.25212,7.275656 6.23413,11.549545 12.08915,17.326424 4.07358,4.0192 5.85397,5.468794 10.72164,8.729478 1.45901,0.977353 2.65276,1.838184 2.65276,1.912984 0,0.21102 -0.59121,0.1209 -2.15089,-0.32786 z m 17.58151,-5.531113 c -2.54088,-1.728886 -3.38186,-2.107978 -9.08177,-4.093836 -4.46034,-1.553982 -7.41682,-2.143711 -12.80151,-2.553507 -5.23582,-0.398469 -5.49583,-0.498853 -7.53227,-2.908076 -1.44284,-1.706974 -3.89852,-5.64437 -4.2327,-6.786631 -0.18586,-0.635313 -0.14105,-0.670589 0.62019,-0.488261 0.45129,0.108092 2.51535,0.271248 4.5868,0.362577 4.65415,0.205204 7.07185,-0.262669 10.66253,-2.063407 3.95979,-1.985842 5.78952,-4.320981 5.78952,-7.38866 0,-2.030702 -0.4695,-3.001064 -2.09758,-4.335145 -1.83069,-1.500114 -3.75027,-2.251655 -6.14748,-2.406835 -3.58341,-0.231964 -2.2685,-0.530572 2.15088,-0.488452 4.5081,0.04296 4.1316,-0.02968 11.82987,2.283118 2.03638,0.611789 4.49671,1.142505 5.69595,1.228666 l 2.11114,0.151664 -0.21167,-0.685025 c -0.9971,-3.2269 -4.77404,-6.050215 -12.64042,-9.448851 -4.25684,-1.839154 -4.26986,-1.847626 -2.98496,-1.942078 2.00831,-0.147628 6.52363,0.500601 8.83105,1.267806 3.1228,1.038309 5.15324,2.154998 10.45435,5.749614 4.99028,3.383852 5.9453,3.768336 6.55061,2.637283 0.52499,-0.980941 0.17641,-6.063371 -0.55598,-8.106461 -1.32504,-3.696368 -4.27474,-7.373181 -8.18313,-10.200308 -1.40716,-1.017877 -2.01696,-1.61245 -1.71928,-1.676374 0.62342,-0.133868 4.21493,1.672762 6.00565,3.021016 1.90038,1.430817 8.97028,7.57958 12.44183,10.820788 5.21712,4.870942 6.89519,5.320926 7.79102,2.089194 0.43529,-1.570329 -0.0294,-5.448994 -1.05493,-8.805718 -0.99278,-3.249467 -3.81093,-8.981278 -5.27216,-10.723025 -0.64716,-0.771391 -1.12486,-1.454311 -1.06157,-1.517605 0.0633,-0.06329 0.88763,0.337706 1.83188,0.891106 5.43869,3.187535 10.26451,12.033389 11.59863,21.260656 0.34528,2.388046 0.36098,2.420606 1.16713,2.420606 3.05755,0 6.17467,-4.907877 6.27151,-9.874423 0.0186,-0.957197 0.12677,-2.12751 0.24026,-2.600707 l 0.20632,-0.860353 0.2601,0.860353 c 0.14304,0.473197 0.25522,3.183308 0.24928,6.022479 -0.01,4.78745 -0.0673,5.345054 -0.78906,7.682477 -0.96738,3.132815 -2.48416,6.182139 -3.799,7.637516 -1.70393,1.886047 -3.66253,3.217232 -14.18473,9.640819 -5.59825,3.417608 -11.01747,6.810908 -12.04272,7.540681 -2.53511,1.804474 -6.19835,5.349442 -7.07668,6.848208 -0.39656,0.67668 -0.87119,1.230317 -1.05474,1.230317 -0.18355,0 -1.45352,-0.761945 -2.82216,-1.693206 z"
     id="path4487"
     inkscape:connector-curvature="0" /></svg>
